RippleCarryAdder/simulation/modelsim/msim_transcript
# Reading pref.tcl
# do RippleCarryAdder_run_msim_gate_verilog.do
# if {[file exists gate_work]} {
# 	vdel -lib gate_work -all
# }
# vlib gate_work
# vmap work gate_work
# Model Technology ModelSim - Intel FPGA Edition vmap 2020.1 Lib Mapping Utility 2020.02 Feb 28 2020
# vmap work gate_work 
# Copying C:/intelFPGA_lite/20.1/modelsim_ase/win32aloem/../modelsim.ini to modelsim.ini
# Modifying modelsim.ini
# 
# vlog -vlog01compat -work work +incdir+. {RippleCarryAdder.vo}
# Model Technology ModelSim - Intel FPGA Edition vlog 2020.1 Compiler 2020.02 Feb 28 2020
# Start time: 17:12:55 on Mar 22,2023
# vlog -reportprogress 300 -vlog01compat -work work "+incdir+." RippleCarryAdder.vo 
# -- Compiling module RippleCarryAdder
# -- Compiling module hard_block
# 
# Top level modules:
# 	RippleCarryAdder
# End time: 17:12:55 on Mar 22,2023, Elapsed time: 0:00:00
# Errors: 0, Warnings: 0
# 
# vlog -vlog01compat -work work +incdir+C:/Users/mannn/Documents/Github/Calculator/RippleCarryAdder {C:/Users/mannn/Documents/Github/Calculator/RippleCarryAdder/tb_RippleCarryAdder.v}
# Model Technology ModelSim - Intel FPGA Edition vlog 2020.1 Compiler 2020.02 Feb 28 2020
# Start time: 17:12:55 on Mar 22,2023
# vlog -reportprogress 300 -vlog01compat -work work "+incdir+C:/Users/mannn/Documents/Github/Calculator/RippleCarryAdder" C:/Users/mannn/Documents/Github/Calculator/RippleCarryAdder/tb_RippleCarryAdder.v 
# -- Compiling module tb_RippleCarryAdder
# 
# Top level modules:
# 	tb_RippleCarryAdder
# End time: 17:12:55 on Mar 22,2023, Elapsed time: 0:00:00
# Errors: 0, Warnings: 0
# 
# vsim -t 1ps -L altera_ver -L altera_lnsim_ver -L fiftyfivenm_ver -L gate_work -L work -voptargs="+acc"  tb_RippleCarryAdder
# vsim -t 1ps -L altera_ver -L altera_lnsim_ver -L fiftyfivenm_ver -L gate_work -L work -voptargs=""+acc"" tb_RippleCarryAdder 
# Start time: 17:12:55 on Mar 22,2023
# Loading work.tb_RippleCarryAdder
# Loading work.RippleCarryAdder
# Loading work.hard_block
# Loading fiftyfivenm_ver.fiftyfivenm_lcell_comb
# Loading fiftyfivenm_ver.fiftyfivenm_io_obuf
# Loading fiftyfivenm_ver.fiftyfivenm_io_ibuf
# Loading fiftyfivenm_ver.fiftyfivenm_unvm
# Loading fiftyfivenm_ver.fiftyfivenm_adcblock
# ** Warning: (vsim-2685) [TFMPC] - Too few port connections for '\~QUARTUS_CREATED_ADC1~ '.  Expected 8, found 7.
#    Time: 0 ps  Iteration: 0  Instance: /tb_RippleCarryAdder/RCA0/\~QUARTUS_CREATED_ADC1~  File: RippleCarryAdder.vo Line: 750
# ** Warning: (vsim-3722) RippleCarryAdder.vo(750): [TFMPC] - Missing connection for port 'clk_dft'.
# ** Warning: (vsim-2685) [TFMPC] - Too few port connections for '\~QUARTUS_CREATED_ADC2~ '.  Expected 8, found 7.
#    Time: 0 ps  Iteration: 0  Instance: /tb_RippleCarryAdder/RCA0/\~QUARTUS_CREATED_ADC2~  File: RippleCarryAdder.vo Line: 773
# ** Warning: (vsim-3722) RippleCarryAdder.vo(773): [TFMPC] - Missing connection for port 'clk_dft'.
# 
# add wave *
# ** Warning: (vsim-WLF-5000) WLF file currently in use: vsim.wlf
#           File in use by: mannn  Hostname: MANINATOR  ProcessID: 12444
#           Attempting to use alternate WLF file "./wlftjmdicz".
# ** Warning: (vsim-WLF-5001) Could not open WLF file: vsim.wlf
#           Using alternate file: ./wlftjmdicz
# view structure
# .main_pane.structure.interior.cs.body.struct
# view signals
# .main_pane.objects.interior.cs.body.tree
# run -all
# a=0     b=0     cin=0     sum=0    
# a=36    b=129   cin=1     sum=166  
# a=99    b=13    cin=1     sum=113  
# a=101   b=18    cin=1     sum=120  
# a=13    b=118   cin=1     sum=132  
# a=237   b=140   cin=1     sum=122  
# a=198   b=197   cin=0     sum=139  
# a=229   b=119   cin=0     sum=92   
# a=143   b=242   cin=0     sum=129  
# a=232   b=197   cin=0     sum=173  
# a=189   b=45    cin=1     sum=235  
# a=99    b=10    cin=0     sum=109  
# a=32    b=170   cin=1     sum=203  
# a=150   b=19    cin=1     sum=170  
# a=83    b=107   cin=1     sum=191  
# a=2     b=174   cin=1     sum=177  
# a=207   b=35    cin=0     sum=242  
# a=202   b=60    cin=0     sum=6    
# a=138   b=65    cin=0     sum=203  
# a=120   b=137   cin=1     sum=2    
# a=182   b=198   cin=0     sum=124  
# a=188   b=42    cin=1     sum=231  
# a=113   b=133   cin=1     sum=247  
# a=59    b=58    cin=0     sum=117  
# a=21    b=241   cin=1     sum=7    
# a=98    b=76    cin=1     sum=175  
# a=143   b=248   cin=1     sum=136  
# a=159   b=92    cin=1     sum=252  
# a=137   b=73    cin=0     sum=210  
# a=215   b=81    cin=0     sum=40   
# a=12    b=194   cin=0     sum=206  
# a=119   b=61    cin=0     sum=180  
# a=126   b=109   cin=1     sum=236  
# a=31    b=211   cin=1     sum=243  
# a=120   b=91    cin=1     sum=212  
# a=63    b=42    cin=0     sum=105  
# a=134   b=142   cin=0     sum=20   
# a=250   b=38    cin=1     sum=33   
# a=163   b=47    cin=1     sum=211  
# a=95    b=68    cin=1     sum=164  
# a=203   b=230   cin=0     sum=177  
# a=41    b=237   cin=0     sum=22   
# a=101   b=181   cin=1     sum=27   
# a=121   b=68    cin=0     sum=189  
# a=42    b=171   cin=0     sum=213  
# a=220   b=154   cin=1     sum=119  
# a=195   b=86    cin=0     sum=25   
# a=103   b=10    cin=0     sum=113  
# a=56    b=121   cin=0     sum=177  
# a=148   b=147   cin=0     sum=39   
# a=89    b=219   cin=1     sum=53   
# a=217   b=109   cin=0     sum=70   
# a=202   b=182   cin=1     sum=129  
# a=70    b=4     cin=1     sum=75   
# a=105   b=180   cin=0     sum=29   
# a=40    b=45    cin=1     sum=86   
# a=46    b=8     cin=0     sum=54   
# a=253   b=41    cin=0     sum=38   
# a=134   b=218   cin=1     sum=97   
# a=102   b=112   cin=1     sum=215  
# a=186   b=94    cin=0     sum=24   
# a=213   b=26    cin=1     sum=240  
# a=55    b=150   cin=0     sum=205  
# a=38    b=182   cin=1     sum=221  
# a=220   b=134   cin=0     sum=98   
# a=126   b=219   cin=1     sum=90   
# a=121   b=250   cin=1     sum=116  
# a=23    b=161   cin=0     sum=184  
# a=80    b=245   cin=1     sum=70   
# a=41    b=193   cin=1     sum=235  
# a=152   b=75    cin=1     sum=228  
# a=236   b=138   cin=0     sum=118  
# a=168   b=169   cin=1     sum=82   
# a=14    b=230   cin=1     sum=245  
# a=42    b=42    cin=1     sum=85   
# a=158   b=56    cin=1     sum=215  
# a=200   b=202   cin=1     sum=147  
# a=107   b=199   cin=0     sum=50   
# a=186   b=196   cin=1     sum=127  
# a=146   b=180   cin=1     sum=71   
# a=134   b=250   cin=0     sum=128  
# a=50    b=189   cin=0     sum=239  
# a=228   b=202   cin=1     sum=175  
# a=161   b=142   cin=1     sum=48   
# a=11    b=239   cin=1     sum=251  
# a=54    b=117   cin=1     sum=172  
# a=107   b=136   cin=0     sum=243  
# a=155   b=146   cin=0     sum=45   
# a=45    b=75    cin=0     sum=120  
# a=30    b=13    cin=0     sum=43   
# a=24    b=209   cin=0     sum=233  
# a=65    b=59    cin=0     sum=124  
# a=83    b=86    cin=1     sum=170  
# a=226   b=4     cin=1     sum=231  
# a=216   b=18    cin=0     sum=234  
# a=57    b=229   cin=1     sum=31   
# a=43    b=129   cin=0     sum=172  
# a=39    b=161   cin=1     sum=201  
# a=4     b=88    cin=0     sum=92   
# a=20    b=18    cin=0     sum=38   
# a=177   b=85    cin=1     sum=7    
# End time: 17:14:00 on Mar 22,2023, Elapsed time: 0:01:05
# Errors: 0, Warnings: 6
